<?xml version="1.0" encoding="UTF-8" standalone="no"?>
<!DOCTYPE svg PUBLIC "-//W3C//DTD SVG 1.0//EN" "http://www.w3.org/TR/2001/PR-SVG-20010719/DTD/svg10.dtd">
<svg width="19cm" height="22cm" viewBox="241 17 363 424" xmlns="http://www.w3.org/2000/svg" xmlns:xlink="http://www.w3.org/1999/xlink">
  <g>
    <rect style="fill: #ffffff" x="250.525" y="226" width="120.95" height="38"/>
    <rect style="fill: none; fill-opacity:0; stroke-width: 2; stroke: #000000" x="250.525" y="226" width="120.95" height="38"/>
    <text font-size="12.7998" style="fill: #000000;text-anchor:middle;font-family:sans-serif;font-style:normal;font-weight:normal" x="311" y="248.881">
      <tspan x="311" y="248.881">Servidor socket</tspan>
    </text>
  </g>
  <g>
    <rect style="fill: #ffffff" x="290.025" y="308" width="81.95" height="38"/>
    <rect style="fill: none; fill-opacity:0; stroke-width: 2; stroke: #000000" x="290.025" y="308" width="81.95" height="38"/>
    <text font-size="12.7998" style="fill: #000000;text-anchor:middle;font-family:sans-serif;font-style:normal;font-weight:normal" x="331" y="330.881">
      <tspan x="331" y="330.881">OpenCV2</tspan>
    </text>
  </g>
  <g>
    <polyline style="fill: none; fill-opacity:0; stroke-width: 2; stroke: #000000" points="311,265.01 311,286 331,286 331,297.254 "/>
    <polygon style="fill: #000000" points="331,304.754 326,294.754 331,297.254 336,294.754 "/>
    <polygon style="fill: none; fill-opacity:0; stroke-width: 2; stroke: #000000" points="331,304.754 326,294.754 331,297.254 336,294.754 "/>
  </g>
  <g>
    <rect style="fill: #ffffff" x="349" y="401" width="70" height="38"/>
    <rect style="fill: none; fill-opacity:0; stroke-width: 2; stroke: #000000" x="349" y="401" width="70" height="38"/>
    <text font-size="12.7998" style="fill: #000000;text-anchor:middle;font-family:sans-serif;font-style:normal;font-weight:normal" x="384" y="423.881">
      <tspan x="384" y="423.881">Video 1</tspan>
    </text>
  </g>
  <g>
    <polyline style="fill: none; fill-opacity:0; stroke-width: 2; stroke: #000000" points="384,390.254 384,372.995 331,372.995 331,346 "/>
    <polygon style="fill: #000000" points="384,397.754 379,387.754 384,390.254 389,387.754 "/>
    <polygon style="fill: none; fill-opacity:0; stroke-width: 2; stroke: #000000" points="384,397.754 379,387.754 384,390.254 389,387.754 "/>
  </g>
  <g>
    <rect style="fill: #ffffff" x="337.35" y="18" width="97.3" height="38"/>
    <rect style="fill: none; fill-opacity:0; stroke-width: 2; stroke: #000000" x="337.35" y="18" width="97.3" height="38"/>
    <text font-size="12.7998" style="fill: #000000;text-anchor:middle;font-family:sans-serif;font-style:normal;font-weight:normal" x="386" y="40.8811">
      <tspan x="386" y="40.8811">Cliente web</tspan>
    </text>
  </g>
  <g>
    <polyline style="fill: none; fill-opacity:0; stroke-width: 2; stroke-dasharray: 4; stroke: #000000" points="386,65.7361 386,104.495 308,104.495 308,143.254 "/>
    <polygon style="fill: #000000" points="386,58.2361 391,68.2361 386,65.7361 381,68.2361 "/>
    <polygon style="fill: none; fill-opacity:0; stroke-width: 2; stroke: #000000" points="386,58.2361 391,68.2361 386,65.7361 381,68.2361 "/>
    <polygon style="fill: #000000" points="308,150.754 303,140.754 308,143.254 313,140.754 "/>
    <polygon style="fill: none; fill-opacity:0; stroke-width: 2; stroke: #000000" points="308,150.754 303,140.754 308,143.254 313,140.754 "/>
  </g>
  <g>
    <rect style="fill: #ffffff" x="510.575" y="108" width="82.95" height="54"/>
    <rect style="fill: none; fill-opacity:0; stroke-width: 2; stroke: #000000" x="510.575" y="108" width="82.95" height="54"/>
    <text font-size="12.7998" style="fill: #000000;text-anchor:middle;font-family:sans-serif;font-style:normal;font-weight:normal" x="552.05" y="130.881">
      <tspan x="552.05" y="130.881">Arduino</tspan>
      <tspan x="552.05" y="146.881">Nodemcu</tspan>
    </text>
  </g>
  <g>
    <line style="fill: none; fill-opacity:0; stroke-width: 2; stroke-dasharray: 4; stroke: #000000" x1="428.195" y1="61.9026" x2="501.342" y2="105.073"/>
    <polygon style="fill: #000000" points="421.736,58.0906 432.889,58.8673 428.195,61.9026 427.806,67.4793 "/>
    <polygon style="fill: none; fill-opacity:0; stroke-width: 2; stroke: #000000" points="421.736,58.0906 432.889,58.8673 428.195,61.9026 427.806,67.4793 "/>
    <polygon style="fill: #000000" points="507.801,108.885 496.648,108.108 501.342,105.073 501.73,99.4963 "/>
    <polygon style="fill: none; fill-opacity:0; stroke-width: 2; stroke: #000000" points="507.801,108.885 496.648,108.108 501.342,105.073 501.73,99.4963 "/>
  </g>
  <text font-size="12.7998" style="fill: #000000;text-anchor:start;font-family:sans-serif;font-style:normal;font-weight:normal" x="461" y="64">
    <tspan x="461" y="64">Conexión </tspan>
    <tspan x="461" y="80">   HTTP</tspan>
  </text>
  <text font-size="12.7998" style="fill: #000000;text-anchor:start;font-family:sans-serif;font-style:normal;font-weight:normal" x="481" y="98">
    <tspan x="481" y="98"></tspan>
    <tspan x="481" y="114"></tspan>
    <tspan x="481" y="130"></tspan>
  </text>
  <g>
    <rect style="fill: #ffffff" x="501.425" y="199" width="101.15" height="38"/>
    <rect style="fill: none; fill-opacity:0; stroke-width: 2; stroke: #000000" x="501.425" y="199" width="101.15" height="38"/>
    <text font-size="12.7998" style="fill: #000000;text-anchor:middle;font-family:sans-serif;font-style:normal;font-weight:normal" x="552" y="221.881">
      <tspan x="552" y="221.881">Micropython</tspan>
    </text>
  </g>
  <g>
    <line style="fill: none; fill-opacity:0; stroke-width: 2; stroke: #000000" x1="552.012" y1="198.01" x2="552.027" y2="172.72"/>
    <polygon style="fill: #000000" points="552.032,165.22 557.026,175.223 552.027,172.72 547.026,175.217 "/>
    <polygon style="fill: none; fill-opacity:0; stroke-width: 2; stroke: #000000" points="552.032,165.22 557.026,175.223 552.027,172.72 547.026,175.217 "/>
  </g>
  <text font-size="12.7998" style="fill: #000000;text-anchor:start;font-family:sans-serif;font-style:normal;font-weight:normal" x="244" y="114">
    <tspan x="244" y="114">Conexión </tspan>
    <tspan x="244" y="130">  socket</tspan>
  </text>
  <g>
    <rect style="fill: #ffffff" x="242.5" y="400.3" width="70" height="38"/>
    <rect style="fill: none; fill-opacity:0; stroke-width: 2; stroke: #000000" x="242.5" y="400.3" width="70" height="38"/>
    <text font-size="12.7998" style="fill: #000000;text-anchor:middle;font-family:sans-serif;font-style:normal;font-weight:normal" x="277.5" y="423.181">
      <tspan x="277.5" y="423.181">Video 2</tspan>
    </text>
  </g>
  <g>
    <polyline style="fill: none; fill-opacity:0; stroke-width: 2; stroke: #000000" points="277.5,389.554 277.5,373.15 331,373.15 331,347.01 "/>
    <polygon style="fill: #000000" points="277.5,397.054 272.5,387.054 277.5,389.554 282.5,387.054 "/>
    <polygon style="fill: none; fill-opacity:0; stroke-width: 2; stroke: #000000" points="277.5,397.054 272.5,387.054 277.5,389.554 282.5,387.054 "/>
  </g>
  <g>
    <rect style="fill: #ffffff" x="270.85" y="154" width="74.3" height="38"/>
    <rect style="fill: none; fill-opacity:0; stroke-width: 2; stroke: #000000" x="270.85" y="154" width="74.3" height="38"/>
    <text font-size="12.7998" style="fill: #000000;text-anchor:middle;font-family:sans-serif;font-style:normal;font-weight:normal" x="308" y="176.881">
      <tspan x="308" y="176.881">PYTHON</tspan>
    </text>
  </g>
  <g>
    <line style="fill: none; fill-opacity:0; stroke-width: 2; stroke: #000000" x1="308.833" y1="192.986" x2="309.762" y2="215.286"/>
    <polygon style="fill: #000000" points="310.074,222.78 304.662,212.996 309.762,215.286 314.654,212.58 "/>
    <polygon style="fill: none; fill-opacity:0; stroke-width: 2; stroke: #000000" points="310.074,222.78 304.662,212.996 309.762,215.286 314.654,212.58 "/>
  </g>
</svg>
